Iteration
…
- works extremely well with `lists` and `dplyr` functions

---

## Tidy iteration

```r
*cvd %>%
  select(where(is.numeric)) %>% 
  map(.f = ~ mean(.x, na.rm = TRUE))
```

```
## # A tibble: 10,000 x 15
##       ID cvd_status cvd_time   sbp   dbp bp_meds age_number
##    <int>      <dbl>    <dbl> <int> <int> <fct>        <dbl>
##  1     1          0    11.5    133    78 No              50
##  2     2          0    12.1    110    63 No              43
##  3     3          0    11.7    125    67 No              69
##  4     4          0    11.6    124    68 No              33
##  5     5          0    11.2    113    81 No              40
##  6     6          1     2.14   144    68 No              67
##  7     7          0    10.8    145    78 Yes             61
##  8     8          0     8.28   126    69 No              71
##  9     9         NA    NA      138    81 No              42
## 10    10          0    11.9    141    81 Yes             54
## # ... with 9,990 more rows, and 8 more variables:
## #   drink <fct>, smoke <fct>, hba1c <dbl>, diabetes <fct>,
## #   albuminuria <fct>, bp_midrange <fct>,
## #   rec_bpmeds_acc_aha <fct>, rec_bpmeds_jnc7 <fct>
```

---

## Tidy iteration

```r
cvd %>% 
* select(where(is.numeric)) %>%
  map(.f = ~ mean(.x, na.rm = TRUE))
```

```
## # A tibble: 10,000 x 7
##       ID cvd_status cvd_time   sbp   dbp age_number hba1c
##    <int>      <dbl>    <dbl> <int> <int>      <dbl> <dbl>
##  1     1          0    11.5    133    78         50   6.4
##  2     2          0    12.1    110    63         43   5  
##  3     3          0    11.7    125    67         69   4.9
##  4     4          0    11.6    124    68         33   5.1
##  5     5          0    11.2    113    81         40   6  
##  6     6          1     2.14   144    68         67   6.3
##  7     7          0    10.8    145    78         61   6.1
##  8     8          0     8.28   126    69         71   6  
##  9     9         NA    NA      138    81         42   5.3
## 10    10          0    11.9    141    81         54   4.9
## # ... with 9,990 more rows
```
…
